<svg width="185" height="32" viewBox="0 0 185 32" fill="none" xmlns="http://www.w3.org/2000/svg">
<path d="M12.1492 23.7624C19.1695 23.7624 23.5932 18.4079 23.5932 12.1663V10.4554H11.444V14.5743H18.913C18.0475 17.6158 15.7074 19.5802 12.1492 19.5802C7.59726 19.5802 4.32756 16.1584 4.32756 11.8812C4.32756 7.69901 7.62932 4.18218 11.9889 4.18218C15.0342 4.18218 17.2782 5.51287 18.7527 8.20594L22.5995 5.92475C20.612 2.4396 16.7973 0 11.9569 0C5.03279 0 0 5.29109 0 11.8812C0 18.3129 4.84045 23.7624 12.1492 23.7624Z" fill="white"/>
<path d="M34.4935 23.8257C36.9618 23.8257 39.2057 22.7802 40.5841 21.0376V23.4455H44.9117V4.91089H40.5841V7.12871C39.2057 5.51287 37.0259 4.53069 34.5576 4.53069C29.8133 4.53069 25.2614 8.04752 25.2614 14.1941C25.2614 20.2772 29.9736 23.8257 34.4935 23.8257ZM35.1987 19.897C31.9931 19.897 29.5248 17.3624 29.5248 14.1307C29.5248 10.9307 31.9931 8.42772 35.1987 8.42772C38.4364 8.42772 40.8085 10.9624 40.8085 14.1307C40.8085 17.3307 38.4364 19.897 35.1987 19.897Z" fill="white"/>
<path d="M47.3767 23.4455H51.7363V0H47.3767V23.4455Z" fill="white"/>
<path d="M62.8555 23.8257C65.3238 23.8257 67.5677 22.7802 68.9461 21.0376V23.4455H73.2737V4.91089H68.9461V7.12871C67.5677 5.51287 65.3879 4.53069 62.9196 4.53069C58.1753 4.53069 53.6234 8.04752 53.6234 14.1941C53.6234 20.2772 58.3356 23.8257 62.8555 23.8257ZM63.5607 19.897C60.3551 19.897 57.8868 17.3624 57.8868 14.1307C57.8868 10.9307 60.3551 8.42772 63.5607 8.42772C66.7984 8.42772 69.1705 10.9624 69.1705 14.1307C69.1705 17.3307 66.7984 19.897 63.5607 19.897Z" fill="white"/>
<path d="M74.3358 23.4455H79.625L84.0808 17.2673L88.6648 23.4455H93.954L86.7735 14.0673L93.5053 4.91089H88.3763L84.1449 10.804L79.8815 4.91089H74.5922L81.3881 14.004L74.3358 23.4455Z" fill="white"/>
<path d="M97.809 32H102.201L113.388 4.91089H108.836L103.9 17.3941L98.6745 4.91089H94.0585L101.752 22.5267L97.809 32Z" fill="white"/>
<path d="M122.886 23.4455H127.245V13.8772H136.125V9.75842H127.245V4.43564H136.125V0.316831H122.886V23.4455Z" fill="white"/>
<path d="M147.483 23.8257C152.869 23.8257 157.196 19.5168 157.196 14.1941C157.196 8.77624 152.869 4.53069 147.483 4.53069C142.066 4.53069 137.77 8.77624 137.77 14.1941C137.77 19.5168 142.066 23.8257 147.483 23.8257ZM147.483 19.802C144.374 19.802 142.034 17.2673 142.034 14.1941C142.034 11.0574 144.374 8.55445 147.483 8.55445C150.561 8.55445 152.933 11.0574 152.933 14.1941C152.933 17.2673 150.561 19.802 147.483 19.802Z" fill="white"/>
<path d="M159.103 23.4455H163.463V0H159.103V23.4455Z" fill="white"/>
<path d="M174.582 23.8257C177.05 23.8257 179.294 22.7802 180.672 21.0376V23.4455H185V0H180.64V7.09703C179.262 5.48119 177.082 4.53069 174.646 4.53069C169.902 4.53069 165.35 8.04752 165.35 14.1941C165.35 20.2772 170.062 23.8257 174.582 23.8257ZM175.287 19.897C172.081 19.897 169.613 17.3624 169.613 14.1307C169.613 10.9307 172.081 8.42772 175.287 8.42772C178.525 8.42772 180.897 10.9624 180.897 14.1307C180.897 17.3307 178.525 19.897 175.287 19.897Z" fill="white"/>
</svg>
