<svg width="50" height="50" viewBox="0 0 50 50" fill="none" xmlns="http://www.w3.org/2000/svg">
<path d="M36.0784 0.130719L31.3726 8.16994L14.3791 36.2745H5.42484L27.1895 0H15.6863C7.05882 0 0 7.05882 0 15.6863V34.3137C0 42.4183 6.27451 49.1503 14.183 49.9346L21.8954 37.1895L22.4183 36.3399L27.1242 28.5621H31.5686H39.3464H45.4248L40.2614 36.3399H32.0261L23.5948 50H34.3137C42.9412 50 50 42.9412 50 34.3137V15.6863C50 7.64706 43.8562 0.980392 36.0784 0.130719ZM40.6536 22.0261H31.1111L35.7516 14.2484H39.3464H45.4248L40.6536 22.0261Z" fill="url(#paint0_linear)"/>
<defs>
<linearGradient id="paint0_linear" x1="4.60399" y1="4.60444" x2="45.3676" y2="45.3682" gradientUnits="userSpaceOnUse">
<stop offset="0.00130208" stop-color="#503397"/>
<stop offset="0.1605" stop-color="#702B90"/>
<stop offset="0.5665" stop-color="#BC177E"/>
<stop offset="0.8563" stop-color="#ED0B73"/>
<stop offset="1" stop-color="#FF066F"/>
</linearGradient>
</defs>
</svg>
