<?xml version="1.0" encoding="UTF-8"?>
<svg width="92px" height="96px" viewBox="0 0 92 96" version="1.1" xmlns="http://www.w3.org/2000/svg" xmlns:xlink="http://www.w3.org/1999/xlink">
    <!-- Generator: Sketch 52.5 (67469) - http://www.bohemiancoding.com/sketch -->
    <title>user_level4</title>
    <desc>Created with Sketch.</desc>
    <g id="Main-pages---desktop-view" stroke="none" stroke-width="1" fill="none" fill-rule="evenodd">
        <g id="Open-Product-Page-new---Review-tab" transform="translate(-183.000000, -2035.000000)" fill-rule="nonzero">
            <g id="user_level4" transform="translate(183.000000, 2035.000000)">
                <ellipse id="Oval" fill="#30E6B6" cx="46.5" cy="50" rx="45.5" ry="45"></ellipse>
                <path d="M78,82.359743 C77.3457483,81.1905782 76.5606462,80.2812277 76.0372449,79.9564597 C74.7941666,79.1770164 64.3915643,74.4354033 59.4846765,72.2269807 C59.7463772,71.9671663 59.8772275,67.6802284 59.8772275,67.6802284 C61.7091323,66.3811563 63.1484861,65.2119914 63.9335881,64.2376874 C66.158044,61.5745896 65.5692174,58.0021413 65.8963433,54.1049251 C65.9617685,53.7152034 66.0271936,53.2605282 66.0926188,52.7408994 C66.158044,52.2862241 66.158044,51.7016417 66.2234691,51.0521056 C66.2234691,51.0521056 67.0739964,52.5460385 69.4947277,52.7408994 C73.4856632,53.0656674 77.0840476,46.1805853 77.4765986,39.1006424 C77.7382993,33.904354 77.4765986,26.3047823 77.4765986,26.3047823 C77.4765986,26.3047823 75.9718197,29.6823697 73.1585373,31.3062099 C69.9527039,33.1249108 67.3356971,35.6581014 67.0739964,35.9179158 C67.2048467,35.7880086 68.1207991,34.8786581 70.3452549,32.2155603 C74.7941666,26.8244111 74.4016156,17.8608137 70.2798298,12.2098501 C63.1484861,7.66309779 54.6432138,5 45.549115,5 C43.8480605,5 42.1470061,5.12990721 40.5113768,5.25981442 C36.1933155,6.3640257 32.6603562,8.37758744 30.0433493,11.6902213 C25.5944377,17.2762313 25.0056111,26.6945039 29.6507983,32.2155603 C31.8752541,34.8786581 32.7257814,35.723055 32.9220569,35.9179158 C32.6603562,35.6581014 29.9779242,33.1249108 26.8375159,31.3062099 C23.9588084,29.6823697 22.5194546,26.3047823 22.5194546,26.3047823 C22.5194546,26.3047823 22.2577539,33.904354 22.5194546,39.1006424 C22.8465805,46.1805853 26.5103901,53.0656674 30.5013255,52.7408994 C32.9220569,52.5460385 33.7725841,51.0521056 33.7725841,51.0521056 C33.8380093,51.7016417 33.8380093,52.2862241 33.9034345,52.7408994 C33.9688596,53.2605282 34.0342848,53.7152034 34.09971,54.1049251 C34.3614107,58.0021413 33.7725841,61.5745896 36.0624651,64.2376874 C36.7167168,65.0171306 37.8943699,66.0563883 39.3337237,67.095646 L39.3337237,76.9685939 C39.3337237,76.9685939 39.5299992,77.1634547 39.8571251,77.4882227 C34.7539617,79.8265525 24.4167846,84.503212 22.4540295,85.5424697 C20.4912743,86.5817273 19.8370226,87.4261242 20.0332981,88.2705211 C27.2954921,93.1420414 36.0624651,96 45.549115,96 C58.1107479,95.9350464 69.6910032,90.738758 78,82.359743 Z" id="Shape" fill="#29C49B"></path>
                <path d="M74.7392678,22.1259542 C74.7392678,22.1259542 73.2400579,25.5 70.4371873,27.1221374 C67.2432183,28.9389313 64.6358968,31.4694656 64.3751646,31.7290076 C64.5055307,31.5992366 65.4180932,30.6908397 67.6343166,28.0305344 C72.1971293,22.5152672 71.675665,13.1068702 67.2432183,7.52671756 C62.6804056,1.94656489 55.7058204,0 47.3623914,0 C39.0189623,0 32.0443771,1.94656489 27.6119305,7.52671756 C23.1794838,13.1068702 22.5928364,22.5152672 27.2208322,28.0305344 C29.4370556,30.6908397 30.2844351,31.5343511 30.4799842,31.7290076 C30.219252,31.4694656 27.5467474,28.9389313 24.4179615,27.1221374 C21.5499078,25.5 20.115881,22.1259542 20.115881,22.1259542 C20.115881,22.1259542 19.8551488,29.7175573 20.115881,34.9083969 C20.4417962,41.980916 24.0920464,48.8587786 28.0682117,48.5343511 C30.4799842,48.3396947 31.3273637,46.8473282 31.3273637,46.8473282 C31.3925467,47.4961832 31.3925467,48.0801527 31.4577298,48.5343511 C31.5229128,49.0534351 31.5880959,49.5076336 31.6532789,49.8969466 C31.9140111,53.7900763 31.3273637,57.3587786 33.6087701,60.019084 C35.0427969,61.7061069 38.5626811,64.3015267 43.0603108,66.8320611 C45.8631815,68.389313 49.2526995,68.389313 52.0555702,66.8320611 C56.5531999,64.3015267 60.073084,61.7061069 61.5071109,60.019084 C63.7233342,57.3587786 63.1366869,53.7900763 63.4626021,49.8969466 C63.5277851,49.5076336 63.5929681,49.0534351 63.6581512,48.5343511 C63.7233342,48.0801527 63.7233342,47.4961832 63.7885173,46.8473282 C63.7885173,46.8473282 64.6358968,48.3396947 67.0476692,48.5343511 C71.0238346,48.8587786 74.6089018,41.980916 75,34.9083969 C75,29.6526718 74.7392678,22.1259542 74.7392678,22.1259542 Z" id="Shape" fill="#FDE4D2"></path>
                <path d="M51,39.594733 C51.4228188,40.3875681 52.8724832,42.7660734 55.8322148,42.9823011 C58.7919463,43.1985289 60,41.3966309 60,39.594733 C60,37.9369869 59.033557,37 59.033557,37 C59.033557,37 58.1275168,40.0271885 56.2550336,40.6037958 C54.3825503,41.1804032 51,39.594733 51,39.594733 Z" id="Shape" fill="#F2C2A0"></path>
                <path d="M41,39.594733 C40.5771812,40.3875681 39.1275168,42.7660734 36.1677852,42.9823011 C33.2080537,43.1985289 32,41.3966309 32,39.594733 C32,37.9369869 32.966443,37 32.966443,37 C32.966443,37 33.8724832,40.0271885 35.7449664,40.6037958 C37.6174497,41.1804032 41,39.594733 41,39.594733 Z" id="Shape" fill="#F2C2A0"></path>
                <path d="M51,31.8930204 C52.352345,32.0697298 54.4774585,32.1286329 57.3109432,31.2450859 C60.4664148,30.3026357 60.9171964,29.4190886 61.3035807,29.0067667 C62.3339388,27.7698008 62.3983361,25.0602565 60.2732226,24 C60.2732226,24 58.985275,26.0027067 56.1517903,28.1821227 C52.4811397,31.0094733 51,31.8930204 51,31.8930204 Z" id="Shape" fill="#F2C2A0"></path>
                <path d="M51,66 C52.6246765,65.0343348 54.184366,63.2961373 54.8992237,61.6223176 C55.6790684,59.9484979 55.9390166,56.5364807 57.3037449,54.9270386 C58.6684732,53.3175966 61.9828133,51 61.9828133,51 C61.9828133,51 62.1127875,55.3133047 61.657878,56.6008584 C61.2029686,57.888412 60.6180851,60.3347639 57.3037449,62.5236052 C53.9894048,64.7124464 51,66 51,66 Z" id="Shape" fill="#F2C2A0"></path>
                <path d="M64,37.8487117 C64.3529412,35.6695513 65.1764706,33.8205668 66.7647059,32.4338284 C68.3529412,31.04709 71,29 71,29 C71,29 70.8235294,34.5469536 70.5882353,36.0657623 C70.3529412,37.584571 69.8235294,40.424083 69.0588235,41.7447862 C68.2941176,43.0654894 68.2941176,42.9994543 68.2941176,42.9994543 C68.2941176,42.9994543 69.4705882,41.2165049 69.6470588,37.6506062 C69.7058824,35.9997271 69,34.6129887 67.7647059,34.4809184 C65.1764706,34.2828129 64,37.8487117 64,37.8487117 Z" id="Shape" fill="#F2C2A0"></path>
                <path d="M28,37.8490566 C27.6470588,35.6698113 26.8235294,33.8207547 25.2352941,32.4339623 C23.6470588,31.0471698 21,29 21,29 C21,29 21.1764706,34.5471698 21.4117647,36.0660377 C21.5882353,37.5849057 22.1764706,40.4245283 22.9411765,41.745283 C23.7058824,43 23.7058824,43 23.7058824,43 C23.7058824,43 22.5294118,41.2169811 22.3529412,37.6509434 C22.2941176,36 23,34.6132075 24.2352941,34.4811321 C26.7647059,34.2830189 28,37.8490566 28,37.8490566 Z" id="Shape" fill="#F2C2A0"></path>
                <path d="M45.4848808,73.9060773 L53.5537479,72 C53.5537479,72 70.788848,79.7513812 72.4671723,80.7679558 C74.1454967,81.7845304 77.5021454,82.9917127 75.2428626,84.7071823 C72.9835798,86.4226519 61.2998603,95 44.8393714,95 C28.3788826,95 18.5025893,86.1049724 17.5343252,84.8342541 C16.5660612,83.5635359 16.759714,82.5469613 19.4063024,81.1491713 C22.0528908,79.7513812 39.4816437,72 39.4816437,72 C39.4816437,72 42.4509868,74.6049724 45.4848808,73.9060773 Z" id="Shape" fill="#1DAAF1"></path>
                <path d="M75.2557125,85.0504202 C77.3231374,83.3697479 74.6096422,82.1596639 72.8652524,81.1512605 C70.6040064,80.0084034 68.4719745,79 68.4719745,79 C68.4719745,79 68.4719745,81.7563025 64.2725176,87.3361345 C62.0112716,90.3613445 57.6179936,93.1848739 54,95 C65.5646582,92.5798319 73.4467157,86.5294118 75.2557125,85.0504202 Z" id="Shape" fill="#1682B8"></path>
                <path d="M20,83 C21.0778098,81.9333333 26.2766571,79.6814815 30.2708934,77.7851852 C34.2651297,75.8888889 35.3429395,75 35.3429395,75 C35.3429395,75 36.3573487,75.7111111 37.815562,76.362963 C39.2737752,77.0148148 42,77.2518519 42,77.2518519 C42,77.2518519 34.3919308,78.8518519 27.925072,80.6296296 C23.4870317,81.9333333 20,83 20,83 Z" id="Shape" fill="#5EC9FF"></path>
                <path d="M46,96 C20.6676056,96 0,75.3323944 0,50 C0,24.6676056 20.6676056,4 46,4 C71.3323944,4 92,24.6676056 92,50 C92,75.3323944 71.3323944,96 46,96 Z M46,5.29577465 C21.3802817,5.29577465 1.29577465,25.3802817 1.29577465,50 C1.29577465,74.6197183 21.3802817,94.7042254 46,94.7042254 C70.6197183,94.7042254 90.7042254,74.6197183 90.7042254,50 C90.7042254,25.3802817 70.6197183,5.29577465 46,5.29577465 Z" id="Shape" fill="#4D5052"></path>
                <path d="M49.0775052,31.1611361 C49.4771087,32.0562781 51.0755226,32.3546588 53.0069393,31.4595167 C57.0695746,29.4902043 60,24 60,24 C60,24 58.0019827,25.9096363 53.9393474,27.6999203 C51.475126,28.8337669 48.4781,29.6692327 49.0775052,31.1611361 Z" id="Shape" fill="#4D5052"></path>
                <path d="M53.8976032,41 C51.3809861,41 50.1825971,39.3143248 50.1226776,39.1794708 C49.9429192,38.9097627 49.9429192,38.4377737 50.2425165,38.2354927 C50.4821943,38.0332116 50.9016305,38.0332116 51.0813889,38.3703467 C51.1413083,38.4377737 52.2797779,39.9885949 54.7364755,39.5840328 C57.2530926,39.1794708 57.7923677,36.6846715 57.7923677,36.5498174 C57.8522871,36.2126824 58.1518844,35.9429744 58.5114011,36.0104014 C58.8109984,36.0778284 59.0506762,36.4149634 58.9907568,36.8195255 C58.9907568,36.9543795 58.3316428,40.3257299 54.9162339,40.865146 C54.5567172,41 54.1972005,41 53.8976032,41 Z" id="Shape" fill="#4D5052"></path>
                <path d="M66.2449941,49 C66.1111028,49 66.0441571,49 65.9102658,49 C63.0985476,48.8038272 62.0943626,47.0382715 62.0943626,46.9728806 C61.8935256,46.6459258 62.0274169,46.2535801 62.3621453,46.0574073 C62.6968736,45.8612344 63.0985476,45.9920163 63.2993846,46.3189711 C63.2993846,46.384362 64.035787,47.4960082 66.1111028,47.692181 C66.9813965,47.757572 67.9186358,47.3652263 68.8558752,46.5805349 C71.3998107,44.4226336 73.3412351,39.4529214 73.5420721,34.5486002 C73.7429091,31.1482709 73.6759634,26.7016863 73.6090178,24.0206574 C72.8056697,25.1323035 71.6675933,26.4401225 70.1278429,27.2902049 C66.8475051,29.1211514 64.7052437,31.1482709 64.7052437,31.1482709 C64.437461,31.4098347 64.035787,31.4098347 63.7680043,31.1482709 C63.5002217,30.8867071 63.5002217,30.4943614 63.7680043,30.2327976 C63.83495,30.1674066 66.0441571,28.0748962 69.4583862,26.1785587 C72.136213,24.6745669 73.6090178,21.4704104 73.6090178,21.4050194 C73.7429091,21.1434556 74.0106918,20.9472828 74.3454201,21.0126737 C74.6801485,21.0780647 74.8809855,21.3396285 74.8809855,21.6011923 C74.8809855,21.6665832 75.1487682,29.3173243 74.8809855,34.5486002 C74.6132028,39.8452671 72.537887,45.076543 69.7261689,47.4960082 C68.5211469,48.5422634 67.3830705,49 66.2449941,49 Z" id="Shape" fill="#4D5052"></path>
                <path d="M66.5684683,45 C66.4454176,45 66.3838923,44.9332638 66.322367,44.8665276 C66.1993164,44.7330553 66.2608417,44.5328467 66.3838923,44.3993743 C66.3838923,44.3993743 69.0294809,42.3972888 69.7677847,37.4588113 C70.2599872,34.0552659 70.3215125,31.1188738 70.3215125,29.9176225 C69.644734,30.3847758 68.2911771,31.3858186 66.3838923,33.0542231 C63.7383038,35.3899896 63.6152532,38.9937435 63.6152532,39.0604797 C63.6152532,39.2606882 63.4922025,39.3941606 63.3076266,39.3941606 C63.1230506,39.3941606 63,39.2606882 63,39.0604797 C63,38.9270073 63.1230506,35.1230448 66.0147404,32.5870699 C68.7833796,30.1178311 70.3830378,29.1167883 70.5060884,29.0500521 C70.6291391,28.983316 70.6906644,28.983316 70.813715,29.0500521 C70.9367656,29.1167883 70.998291,29.1835245 70.998291,29.3169969 C70.998291,29.3837331 71.0598163,33.0542231 70.4445631,37.5922836 C69.7062593,42.8644421 66.9376202,44.9332638 66.8145695,45 C66.6915189,45 66.6299936,45 66.5684683,45 Z" id="Shape" fill="#4D5052"></path>
                <path d="M46.5157059,52 C44.8913814,52 43.4885558,51.0549603 43.0455582,49.7949073 C42.8978924,49.479894 43.1193912,49.1018781 43.5623887,49.0388755 C43.9315534,48.9128702 44.3745509,49.1018781 44.4483839,49.479894 C44.7437156,50.2359258 45.5558778,50.8029497 46.5157059,50.8029497 C47.4755339,50.8029497 48.3615291,50.2359258 48.5830278,49.479894 C48.7306937,49.1648808 49.0998583,48.9758728 49.469023,49.0388755 C49.8381876,49.1648808 50.0596864,49.479894 49.9858535,49.7949073 C49.6166888,51.0549603 48.1400303,52 46.5157059,52 Z" id="Shape" fill="#4D5052"></path>
                <path d="M49.4053848,58 C49.2833416,58 49.1612983,57.92 49.039255,57.84 C47.3916708,56.24 43.6083292,56.24 41.960745,57.84 C41.7166584,58.08 41.289507,58 41.1064421,57.68 C40.9233772,57.36 40.9843988,56.8 41.2284853,56.56 C43.3642427,54.48 47.6357573,54.48 49.7715147,56.56 C50.0156012,56.8 50.0766228,57.36 49.8935579,57.68 C49.7715147,57.84 49.5884497,58 49.4053848,58 Z" id="Shape" fill="#4D5052"></path>
                <path d="M56.5932203,60 C56.2372881,60 56,59.7333333 56,59.3333333 C56,56.2666667 57.1864407,53.6666667 59.2033898,52.2666667 C60.9237288,51.0666667 61.3983051,50.6666667 61.5169492,48.3333333 C61.6355932,46.2666667 61.8135593,41.6666667 61.8135593,41.6666667 C61.8135593,41.2666667 62.1101695,41 62.4067797,41 C62.7627119,41 63,41.3333333 63,41.6666667 C63,41.7333333 62.8220339,46.2666667 62.7033898,48.4 C62.5254237,51.3333333 61.6355932,52.0666667 59.7966102,53.3333333 C58.1355932,54.4666667 57.1864407,56.6666667 57.1864407,59.2666667 C57.1864407,59.6666667 56.8898305,60 56.5932203,60 Z" id="Shape" fill="#4D5052"></path>
                <path d="M65.4339451,7.67823489 C61.0704014,1.9857504 54.2042369,0 45.9905075,0 C37.776778,0 30.9106136,1.9857504 26.5470698,7.67823489 C22.183526,13.3707194 21.6059982,22.968513 26.1620512,28.5948058 C27.573786,30.3819812 28.4721626,31.3748564 28.921351,31.9043898 C29.1138602,32.1029648 29.3705393,31.9705815 29.3705393,31.7058148 L29.3705393,19.1955872 C29.3705393,19.1955872 30.6539345,19.857504 35.4024968,20.7179959 C39.1885128,21.3799127 43.8729053,21.512296 45.6696586,21.5784877 C45.6696586,21.5784877 45.7979982,21.5784877 46.0546772,21.5784877 C46.3113563,21.5784877 46.4396958,21.5784877 46.4396958,21.5784877 C48.2364491,21.5784877 52.9208417,21.3799127 56.7068576,20.7179959 C61.4554199,19.857504 62.7388152,19.1955872 62.7388152,19.1955872 L62.7388152,31.5734314 C62.7388152,31.8381981 63.059664,31.9705815 63.2521732,31.7720064 C63.7655313,31.242473 64.5997382,30.2495978 65.9473032,28.5948058 C70.3750167,22.968513 69.7974889,13.3707194 65.4339451,7.67823489 Z" id="Shape" fill="#4D5052"></path>
                <path d="M27,15.1228546 C27,15.1228546 28.456446,15.8261568 30.7735192,16.529459 C33.4216028,17.2966978 36.0696864,17.6163806 36.0696864,17.6163806 C36.0696864,17.6163806 36.5993031,14.0998695 37.5923345,12.0538994 C39.1811847,8.72919803 41.7630662,7.1307839 41.7630662,7.1307839 C41.7630662,7.1307839 39.8432056,10.3276122 39.5783972,13.2047576 C39.3135889,15.9540299 39.5121951,17.8721269 39.5121951,17.8721269 C39.5121951,17.8721269 41.1010453,18 42.358885,18 C43.4843206,18 44.3449477,18 44.3449477,18 C44.3449477,18 43.1533101,13.9080598 43.815331,10.3276122 C44.6097561,6.29960855 46,5.02087725 46,5.02087725 C46,5.02087725 43.2195122,4.76513098 38.6515679,6.04386229 C31.1045296,8.15376895 27,15.1228546 27,15.1228546 Z" id="Shape" fill="#757575"></path>
                <path d="M43.905955,31.1611361 C43.5069567,32.0562781 41.9109633,32.3546588 39.9824712,31.4595167 C35.9259879,29.4305282 33,24 33,24 C33,24 34.9949918,25.9096363 39.0514751,27.6999203 C41.5784646,28.8337669 44.5709523,29.6692327 43.905955,31.1611361 Z" id="Shape" fill="#4D5052"></path>
                <path d="M38.1136257,41 C37.8134933,41 37.4533344,41 37.0931756,40.9316842 C33.7316928,40.3851577 33.0714015,36.9693672 33.011375,36.8327356 C32.9513486,36.4911565 33.131428,36.0812617 33.4915869,36.0129459 C33.7917193,35.9446301 34.1518781,36.1495775 34.2119046,36.5594724 C34.2119046,36.696104 34.7521429,39.1554731 37.273255,39.6336838 C39.7943671,40.0435787 40.9348702,38.472315 40.9348702,38.4039992 C41.1149496,38.130736 41.535135,38.0624202 41.7752409,38.2673676 C42.0153468,38.472315 42.0753733,38.9505257 41.8952938,39.2237889 C41.8352673,39.2921048 40.6347378,41 38.1136257,41 Z" id="Shape" fill="#4D5052"></path>
                <path d="M27.7079613,49 C26.5672781,49 25.3594957,48.5411919 24.2859115,47.5580316 C21.4677527,45.1329028 19.3876832,39.9549252 19.1192871,34.5803156 C18.8508911,29.336794 19.1192871,21.6681436 19.1192871,21.6025996 C19.1192871,21.2748795 19.3876832,21.0127034 19.6560793,21.0127034 C19.9915744,20.9471594 20.2599704,21.1437914 20.3941685,21.4059675 C20.3941685,21.4059675 21.8703468,24.6831685 24.5543075,26.190681 C28.0434564,28.1570016 30.190625,30.1888662 30.257724,30.3199543 C30.5261201,30.5821303 30.5261201,30.9753945 30.257724,31.2375705 C29.9893279,31.4997466 29.5867338,31.4997466 29.3183378,31.2375705 C29.3183378,31.2375705 27.1711692,29.2057059 23.8833174,27.3049293 C22.34004,26.4528571 21.1322577,25.1419767 20.3941685,24.0277283 C20.3270695,26.7150332 20.2599704,31.1720265 20.4612675,34.5803156 C20.7296636,39.4961171 22.6755351,44.4774626 25.1581987,46.6404153 C26.0975849,47.4269435 26.9698722,47.8202076 27.9092584,47.7546636 C29.9893279,47.6235756 30.6603181,46.4437832 30.7274171,46.3782392 C30.9287142,46.0505191 31.3313083,45.9849751 31.6668034,46.1160631 C32.0022985,46.3126952 32.0693975,46.7059593 31.9351994,46.9681354 C31.8681004,47.0336794 30.8616152,48.8033679 28.1105555,49 C27.9092584,49 27.8421594,49 27.7079613,49 Z" id="Shape" fill="#4D5052"></path>
                <path d="M24.4314189,45 C24.3698917,45 24.3083644,45 24.2468372,44.933541 C24.1237827,44.867082 21.355056,42.8068536 20.6167289,37.556594 C19.939929,33.0373832 20.0014563,29.3821391 20.0014563,29.3156802 C20.0014563,29.1827622 20.0629835,29.1163032 20.186038,29.0498442 C20.3090926,28.9833853 20.3706198,28.9833853 20.4936743,29.0498442 C20.5552016,29.1163032 22.1549103,30.113188 24.9851643,32.5721703 C27.8769455,35.0976116 28,38.8857736 28,39.0186916 C28,39.2180685 27.8769455,39.3509865 27.6923637,39.3509865 C27.5077819,39.3509865 27.3847274,39.2180685 27.3847274,39.0186916 C27.3847274,38.9522326 27.2616729,35.4299065 24.6160007,33.0373832 C22.7086557,31.3759086 21.355056,30.3790239 20.6782561,29.913811 C20.6782561,31.1100727 20.7397834,34.0342679 21.2320015,37.423676 C21.9703286,42.4080997 24.6160007,44.3354102 24.6160007,44.3354102 C24.7390552,44.4683281 24.8005825,44.6677051 24.677528,44.8006231 C24.6160007,45 24.4929462,45 24.4314189,45 Z" id="Shape" fill="#4D5052"></path>
                <path d="M36.4067797,60 C36.0508475,60 35.8135593,59.7323944 35.8135593,59.3309859 C35.8135593,56.721831 34.8644068,54.5809859 33.2033898,53.3767606 C31.3644068,52.1056338 30.5338983,51.3697183 30.2966102,48.4260563 C30.1779661,46.3521127 30,41.7359155 30,41.6690141 C30,41.2676056 30.2372881,41 30.5932203,41 C30.8898305,41 31.1864407,41.2676056 31.1864407,41.6690141 C31.1864407,41.7359155 31.3644068,46.2852113 31.4830508,48.3591549 C31.6610169,50.6338028 32.0762712,51.1021127 33.7966102,52.306338 C35.8135593,53.7112676 37,56.3204225 37,59.3978873 C37,59.665493 36.7033898,60 36.4067797,60 Z" id="Shape" fill="#4D5052"></path>
                <path d="M46.4950273,69 C44.80656,69 43.1830337,68.5335714 41.6893895,67.667347 C37.2084568,65.0020409 33.5717579,62.3367348 32.0781137,60.4710205 C30.1948232,58.2055104 30.1298821,55.3403063 30.1298821,52.4084696 C30.1298821,51.5422452 30.0649411,50.609388 30,49.7431635 C30,49.3433676 30.2597642,49.076837 30.5844695,49.0102044 C30.9741158,49.0102044 31.23388,49.276735 31.2988211,49.6098982 C31.3637621,50.5427554 31.3637621,51.4756125 31.4287032,52.341837 C31.4936442,55.207041 31.5585853,57.6724491 33.1171705,59.6047961 C34.4809326,61.337245 38.0526905,63.9359184 42.3388,66.4679592 C44.871501,68.0005102 48.1185537,68.0005102 50.6512547,66.4679592 C54.9373642,63.9359184 58.5091221,61.337245 59.8728842,59.6047961 C61.4314694,57.6724491 61.4964105,55.207041 61.5613515,52.341837 C61.5613515,51.4756125 61.6262926,50.5427554 61.6912336,49.6098982 C61.6912336,49.2101023 62.0159389,48.9435717 62.4055852,49.0102044 C62.7952315,49.0102044 63.0549957,49.3433676 62.9900547,49.7431635 C62.9251136,50.6760207 62.9251136,51.5422452 62.8601726,52.4084696 C62.7952315,55.406939 62.7302905,58.2055104 60.911941,60.4710205 C59.4182968,62.3367348 55.7815979,65.0020409 51.3006652,67.667347 C49.807021,68.6002041 48.1185537,69 46.4950273,69 Z" id="Shape" fill="#4D5052"></path>
                <path d="M49.7468354,65.8682927 C47.0253165,67.3902439 43.7341772,67.3902439 41.0126582,65.8682927 C38.6708861,64.5365854 36.6455696,63.204878 35,62 L35,71.6390244 C35,71.6390244 37.7848101,75 45,75 C52.2151899,75 55,71.6390244 55,71.6390244 L55,62.5707317 C53.4810127,63.5853659 51.7088608,64.7268293 49.7468354,65.8682927 Z" id="Shape" fill="#4D5052"></path>
                <path d="M76.3642189,85 C76.1684802,85 75.9727415,84.9339318 75.842249,84.7357272 C75.842249,84.7357272 74.472078,82.9518862 70.2963187,81.0359087 C67.8169616,79.9127495 54.8982063,73.5041353 54.3762364,73.2398625 C54.0500052,73.1077261 53.9195127,72.711317 54.0500052,72.3809761 C54.1804976,72.0506351 54.5719751,71.9184987 54.8982063,72.0506351 C55.0286987,72.1167033 68.3389315,78.7235221 70.8182886,79.8466813 C75.3855253,81.9608633 76.8209426,83.942909 76.8861888,84.0089772 C77.0819275,84.2732499 77.0166813,84.7357272 76.7556963,84.9339318 C76.6252039,85 76.4947114,85 76.3642189,85 Z" id="Shape" fill="#4D5052"></path>
                <path d="M16.6098801,85 C16.4839694,85 16.3580587,85 16.2951033,84.9342659 C15.9803264,84.7370635 15.9173711,84.3426588 16.1062372,84.0139883 C16.1691926,83.9482541 17.3653446,81.9104965 21.7722205,79.8070048 C24.1645245,78.6895248 37.00742,72.1161132 37.1333308,72.0503791 C37.4481076,71.9189108 37.8258398,72.0503791 37.9517506,72.3790497 C38.0776613,72.7077202 37.9517506,73.1021249 37.6369737,73.2335932 C37.1333308,73.4965296 24.6681675,79.8727389 22.2758634,80.9902189 C18.2467198,82.8965083 17.1764785,84.6055953 17.1764785,84.6713294 C17.0505677,84.8685318 16.8617016,85 16.6098801,85 Z" id="Shape" fill="#4D5052"></path>
                <path d="M46.3997815,79 C46.3331513,79 46.3331513,79 46.3997815,79 C46.1332605,79 46,78.8598708 46,78.649677 C46,78.4394832 46.1332605,78.299354 46.3331513,78.299354 C46.3997815,78.299354 51.7968321,78.3694186 56.4609499,75.0763823 C56.5942104,74.9362531 56.7941012,75.0063177 56.9273617,75.1464469 C57.0606222,75.2865761 56.993992,75.4967699 56.8607314,75.6368991 C52.2632439,78.9299354 47.0660841,79 46.3997815,79 Z" id="Shape" fill="#4D5052"></path>
                <path d="M46,47 C45.4666667,47 45,46.5743243 45,46.0878378 L45,38.9121622 C45,38.4256757 45.4666667,38 46,38 C46.5333333,38 47,38.4256757 47,38.9121622 L47,46.027027 C47,46.5743243 46.5333333,47 46,47 Z" id="Shape" fill="#FFFFFF"></path>
            </g>
        </g>
    </g>
</svg>