<svg id="Layer_1" data-name="Layer 1" xmlns="http://www.w3.org/2000/svg" viewBox="0 0 189 168">
    <defs>
        <style>.cls-1{fill:#27b1f1;}.cls-2{fill:#F61971;}.cls-3{fill:#F61971;}.cls-4{fill:#fff;}</style>
    </defs>
    <title>feature-1</title>
    <g id="Main-pages---desktop-view">
        <g id="Main-page-new-way">
            <g id="smart_platform" data-name="smart platform">
                <rect id="Rectangle-path" class="cls-1" x="51.5" y="15.92" width="82.75" height="17.6"/>
                <path id="Shape" class="cls-1"
                      d="M143.68,120.93V90.73h-8.84v30.2h-8.4v42.68a3.55,3.55,0,0,0,3.55,3.55h18.55a3.55,3.55,0,0,0,3.55-3.55V120.93h-8.41Z"/>
                <polygon id="Shape-2" data-name="Shape" class="cls-2"
                         points="0.5 0 0.5 35.2 18.1 35.2 18.1 17.6 35.7 17.6 35.7 0 0.5 0"/>
                <circle id="Oval" class="cls-3" cx="139.26" cy="48.98" r="48.98"/>
                <path id="Shape-3" data-name="Shape"
                      d="M139.26,93.64A44.66,44.66,0,1,1,183.92,49,44.66,44.66,0,0,1,139.26,93.64Zm0-88.32A43.66,43.66,0,1,0,182.92,49,43.66,43.66,0,0,0,139.26,5.32Z"/>
                <rect id="Rectangle-path-2" data-name="Rectangle-path" class="cls-4" x="0.5" y="48.98" width="110.98"
                      height="118"/>
                <path id="Shape-4" data-name="Shape"
                      d="M111.48,167.48H0.5A0.5,0.5,0,0,1,0,167V49a0.5,0.5,0,0,1,.5-0.5h111a0.5,0.5,0,0,1,.5.5V167A0.5,0.5,0,0,1,111.48,167.48ZM1,166.48H111v-117H1v117Z"/>
                <polygon id="Rectangle-path-3" data-name="Rectangle-path" class="cls-2"
                         points="19.11 111.37 92.87 111.37 92.87 146.51 19.11 146.51 19.11 111.37"/>
                <polygon id="Shape-5" data-name="Shape" class="cls-4"
                         points="157.96 22.58 140.36 22.58 140.36 40.18 120.56 40.18 120.56 75.38 138.16 75.38 138.16 57.78 157.96 57.78 157.96 22.58"/>
                <polygon id="Shape-6" data-name="Shape" class="cls-1"
                         points="66.79 65.32 56.63 65.32 56.63 75.48 45.19 75.48 45.19 95.81 55.36 95.81 55.36 85.64 66.79 85.64 66.79 65.32"/>
                <path id="Shape-7" data-name="Shape"
                      d="M49.66,131a2.9,2.9,0,0,1-1.07,2.46,4.82,4.82,0,0,1-3,.82H41.91v-11.5h3.46a8.21,8.21,0,0,1,1.41.12,3.78,3.78,0,0,1,1.25.44,2.64,2.64,0,0,1,.89.9,2.94,2.94,0,0,1,.34,1.51,2.43,2.43,0,0,1-1.78,2.44A2.72,2.72,0,0,1,49.66,131Zm-1.6-5.22a1.78,1.78,0,0,0-.26-1,1.7,1.7,0,0,0-.65-0.6,3,3,0,0,0-.87-0.28,5.75,5.75,0,0,0-.91-0.07H43.12v3.89h2.25a6,6,0,0,0,1-.07,2.57,2.57,0,0,0,.86-0.29,1.78,1.78,0,0,0,.62-0.6,1.73,1.73,0,0,0,.21-1v0ZM48.45,131a2,2,0,0,0-.77-1.73,3.68,3.68,0,0,0-2.11-.54H43.12v4.52h2.45a3.46,3.46,0,0,0,2.11-.57A1.92,1.92,0,0,0,48.45,131Z"/>
                <path id="Shape-8" data-name="Shape"
                      d="M60,130.16a6.5,6.5,0,0,1-.22,1.77,3.55,3.55,0,0,1-.66,1.35,3.13,3.13,0,0,1-1.15.87,4.66,4.66,0,0,1-3.29,0,3.1,3.1,0,0,1-1.14-.87,3.74,3.74,0,0,1-.65-1.36,6.5,6.5,0,0,1-.22-1.77v-7.37h1.2v7.38a7.14,7.14,0,0,0,.1,1.1,3.09,3.09,0,0,0,.36,1.06,2.09,2.09,0,0,0,2,1.1,2.26,2.26,0,0,0,1.26-.31,2.17,2.17,0,0,0,.75-0.79,3.09,3.09,0,0,0,.36-1.06,7.09,7.09,0,0,0,.09-1.1v-7.38H60v7.38Z"/>
                <polygon id="Shape-9" data-name="Shape"
                         points="71.31 123.81 70.38 123.81 67.65 129.3 67.65 133.22 69.49 133.22 69.49 134.22 64.57 134.22 64.57 133.22 66.42 133.22 66.42 129.3 63.69 123.81 62.76 123.81 62.76 122.81 66 122.81 66 123.81 65 123.81 67 128.13 69 123.81 68 123.81 68 122.81 71.23 122.81 71.31 123.81"/>
                <polygon id="Rectangle-path-4" data-name="Rectangle-path" class="cls-2"
                         points="162.34 103.7 179.54 103.7 179.54 120.9 162.34 120.9 162.34 103.7"/>
                <polygon id="Rectangle-path-5" data-name="Rectangle-path" class="cls-2"
                         points="162.34 129.32 179.54 129.32 179.54 146.52 162.34 146.52 162.34 129.32"/>
                <path id="Shape-10" data-name="Shape" class="cls-4"
                      d="M169.4,115.25a0.54,0.54,0,0,1-.35-0.14l-2.92-2.92a0.5,0.5,0,0,1,0-.71,0.51,0.51,0,0,1,.71,0L169.4,114l6.42-6.42a0.5,0.5,0,1,1,.71.71l-6.77,6.77A0.54,0.54,0,0,1,169.4,115.25Z"/>
                <path id="Shape-11" data-name="Shape" class="cls-4"
                      d="M169.4,141.52a0.5,0.5,0,0,1-.35-0.15l-2.92-2.92a0.48,0.48,0,0,1,0-.7,0.5,0.5,0,0,1,.71,0l2.56,2.56,6.42-6.41a0.5,0.5,0,0,1,.71.7l-6.77,6.77A0.51,0.51,0,0,1,169.4,141.52Z"/>
                <path id="Shape-12" data-name="Shape" class="cls-4"
                      d="M54.32,31.33a0.5,0.5,0,0,1-.5-0.5V18.67a0.5,0.5,0,0,1,1,0V30.83A0.5,0.5,0,0,1,54.32,31.33Z"/>
            </g>
        </g>
    </g>
</svg>
