
<svg width="80px" height="84px" viewBox="0 0 80 84" version="1.1" xmlns="http://www.w3.org/2000/svg" xmlns:xlink="http://www.w3.org/1999/xlink">
    <defs>
        <linearGradient x1="42.4981744%" y1="56.2743516%" x2="55.1756592%" y2="50.6907781%" id="linearGradient-1">
            <stop stop-color="#30E6B6" stop-opacity="0" offset="0%"></stop>
            <stop stop-color="#30E6B6" offset="100%"></stop>
        </linearGradient>
        <linearGradient x1="58.6436874%" y1="47.7345446%" x2="46.0094188%" y2="52.7448693%" id="linearGradient-2">
            <stop stop-color="#30E6B6" stop-opacity="0" offset="0%"></stop>
            <stop stop-color="#30E6B6" offset="100%"></stop>
        </linearGradient>
    </defs>
    <g id="Main-pages---desktop-view" stroke="none" stroke-width="1" fill="none" fill-rule="evenodd">
        <g id="Open-Product-Page-new-with-ratings" transform="translate(-446.000000, -822.000000)" fill-rule="nonzero">
            <g id="Group-9" transform="translate(259.000000, 822.000000)">
                <g id="jedi" transform="translate(187.000000, 0.000000)">
                    <path d="M40.5,4 C32.7692857,4 25.5464286,6.20071429 19.4521429,10.0378571 L15.7842857,12.69 C6.75571429,19.9128571 1,31.0292857 1,43.5 C1,65.3378571 18.6621429,83 40.5,83 C62.3378571,83 80,65.3378571 80,43.5 C80,21.6621429 62.3378571,4 40.5,4 Z" id="Shape" fill="#1DAAF1"></path>
                    <path d="M79.5495115,49.9152771 C79.5495115,49.7470497 79.6058226,49.5788223 79.6058226,49.4666707 C79.7184447,48.9059127 79.7747558,48.2890788 79.8310668,47.7283208 C79.6621337,48.1208514 79.4368894,48.6816095 79.1553342,49.4105949 C79.2116452,49.1302159 79.2679563,48.8498369 79.3242673,48.5694579 C79.6058226,47.3357902 79.8310668,46.0460468 80,44.8123792 C80,44.4759243 80,44.0833937 80,43.7469389 C80,41.1113763 79.7184447,38.5318894 79.2679563,36.0645541 C78.7611568,34.6065833 78.0854241,33.2046882 77.0718251,31.858869 C73.4116064,26.8681227 68.1746782,26.2512888 62.0930841,27.6531839 C56.01149,29.0550789 53.0833151,32.980385 51.2250502,36.8496153 C49.3667854,40.7188456 46.1570551,50.7003383 46.1570551,50.7003383 L47.959009,54.2331138 C47.959009,54.2331138 48.6347416,55.3546298 49.9298959,57.5976619 C51.2250502,59.840694 51.6755387,61.4668922 49.6483406,62.364105 C47.6211426,63.2613179 46.044433,59.1117085 44.5240345,56.6443733 C43.003636,54.177038 42.6657697,54.1209622 40.8075048,54.2331138 C38.9492399,54.3452654 36.7531087,54.2331138 32.0792911,57.4294345 C27.4054734,60.6257552 24.1394321,68.9249738 21.4928125,75.2054636 C21.4928125,75.2054636 21.4928125,74.9250846 21.0986351,76.214828 C20.8733909,76.8316618 20.986013,77.4484956 21.9433009,78.2896327 C27.5180955,81.317726 33.9375559,83 40.6948827,83 C60.2348192,83 76.5650256,68.6445948 79.5495115,49.9152771 Z" id="Shape" fill="#1682B8"></path>
                    <path d="M16.5522131,72.1506658 C19.2253927,65.8713755 22.52421,57.5737418 27.2449314,54.3780315 C31.9656528,51.1823213 34.183823,51.2944514 36.0607364,51.1823213 C37.9376497,51.0701911 38.2789066,51.1823213 39.814563,53.5931202 C41.3502193,56.0599843 42.999628,60.2648662 44.9902936,59.3117597 C47.0378354,58.3586531 46.5828261,56.7327654 45.2746744,54.5462268 C43.9665227,52.3036231 43.2840088,51.1823213 43.2840088,51.1823213 L41.4639716,47.6502204 C41.4639716,47.6502204 44.7059128,37.670634 46.5828261,33.8021426 C48.4597395,29.9336512 51.474176,26.0651598 57.6168014,24.6635325 C63.7594268,23.2619052 69.0489097,23.8225562 72.7458602,28.8684145 C76.4428107,33.9142728 76.4428107,39.6889773 75.0209066,45.575812 C73.6558788,51.4626467 73.4283741,57.1812861 73.4852503,57.2373512 C73.5421265,57.2934163 73.6558788,58.7511087 74.793402,59.53602 C75.9309252,60.3209313 76.4428107,60.4891266 75.5327921,62.0028841 C74.6227735,63.5166416 71.4377085,69.851997 64.9538261,74.673595 C58.4699438,79.4951929 50.2229004,82.6909032 45.104046,82.9151636 C39.9851915,83.1394239 31.2262627,83.195489 23.8892379,79.3830627 C16.5522131,75.5706365 15.6421946,74.4493346 16.0972038,73.1598375 C16.6090893,71.8703404 16.5522131,72.1506658 16.5522131,72.1506658 Z" id="Shape" fill="#C9C9C9"></path>
                    <path d="M23,79.2546782 C24.1705962,77.456145 26.5117886,73.4094452 28.1840689,69.4751537 C29.9120918,65.4846581 30.1350625,64.1357582 31.4171441,64.5291874 C32.6992256,64.9226165 31.1941734,70.9926662 30.0793199,74.702141 C28.9644663,78.4116157 30.1350625,78.9174532 31.2499161,77.7933699 C32.3647696,76.6692867 33.5911085,72.7349952 34.4829913,69.4751537 C35.4306168,66.2153123 35.9323009,62 35.9323009,62 C35.9323009,62 36.4339849,65.5408623 34.705962,72.9598119 C32.977939,80.3787615 32.1417989,82.3459072 29.7448638,81.952478 C27.3479287,81.5028447 23,79.2546782 23,79.2546782 Z" id="Shape" fill="#ABABAB"></path>
                    <path d="M52.2747748,59 C52.2747748,59 54.7927928,62.977591 55.6711712,64.3221289 C56.5495495,65.6106443 55.9054054,67.1232493 55.3198198,67.7955182 C54.7342342,68.4677871 55.6711712,69.5322129 55.6711712,69.5322129 C55.6711712,69.5322129 56.5495495,69.140056 56.9594595,69.7563025 C57.3693694,70.372549 56.9594595,70.8767507 56.9594595,70.8767507 C56.9594595,70.8767507 57.3108108,70.6526611 57.6621622,71.2128852 C58.0135135,71.7731092 57.6621622,72.3333333 57.6621622,72.3333333 C57.6621622,72.3333333 58.3063063,72.2212885 58.7747748,72.7815126 C59.2432432,73.3417367 58.5990991,73.8459384 58.5990991,73.8459384 C58.5990991,73.8459384 59.2432432,73.7338936 59.7702703,74.3501401 C60.2972973,75.022409 59.536036,75.5266106 59.536036,75.5266106 C59.536036,75.5266106 60.0630631,75.3585434 60.5900901,75.8627451 C61.1171171,76.3669468 60.4144144,76.9831933 60.4144144,76.9831933 L61,77.8795518 L58.6576577,79 L48,61.464986 L52.2747748,59 Z" id="Shape" fill="#ABABAB"></path>
                    <path d="M49.8435851,81.9469547 C48.560266,82.1195945 47.1653541,80.68093 46.0494245,79.0696258 C45.2124773,77.8611476 44.2081406,73.6602474 44.0965477,71.9913966 C44.0965477,71.9913966 43.8733618,73.6602474 43.7617688,74.5809926 C43.6501759,76.1922968 42.9806181,77.2856818 41.920485,77.3432284 C40.8603519,77.400775 39.8002188,76.30739 40.1349976,73.6602474 C40.4697765,71.0131047 40.1349976,64.8556208 40.1349976,64.8556208 C40.1349976,64.8556208 39.4096434,67.6754032 38.4611033,66.0640989 C37.5125631,64.4527947 37.1219878,61 37.1219878,61 C37.1219878,61 37.2893772,62.7263974 36.7872089,65.2584468 L35.8944652,70.6678253 C34.6669427,76.1922968 32.6024729,80.4507437 32.0445081,81.5441287 C31.4865433,82.6375137 36.2850406,83.0978863 40.2465906,82.9827931 C44.2081406,82.8677 51.1269041,81.774315 49.8435851,81.9469547 Z" id="Shape" fill="#ABABAB"></path>
                    <path d="M46,51.0540541 L48.4210526,55 C48.4210526,55 49.3684211,55 50.3684211,53.5405405 C51,52.6216216 51,51.4864865 51,51.4864865 L49.7368421,47 C49.7368421,47 49.7368421,48.7297297 48.2631579,49.9189189 C46.7894737,51.1081081 46,51.0540541 46,51.0540541 Z" id="Shape" fill="#FFFFFF"></path>
                    <path d="M43.7712177,45.9644758 C44.6568266,43.5669426 46.7601476,34.8689155 50.8560886,30.5199019 C54.9520295,26.1708883 57,25 57,25 C57,25 49.5276753,28.624178 48.697417,38.1027974 C48.4760148,40.5560871 48.4760148,42.4518109 48.8634686,45.6299363 C49.0848708,47.4699035 47.701107,48.5850352 46.6494465,49.3098708 C45.3210332,50.2019762 42.7195572,50.3134894 42,49.1426011 C42,49.1426011 42.9409594,48.1389826 43.7712177,45.9644758 Z" id="Shape" fill="#FFFFFF"></path>
                    <path d="M50.6328105,68.3793103 L50.2583777,68.6073188 C48.9211175,69.4053483 47.2629148,68.9493315 46.4605587,67.5812808 L44,63.1921182 L49.1350791,60 L51.5956378,64.3891626 C52.3979939,65.7572132 51.9700707,67.5242787 50.6328105,68.3793103 Z" id="Shape" fill="#878787"></path>
                    <path d="M59,78.2967033 L54.4594595,70.2197802 C54.3513514,70 54.0810811,69.9450549 53.8648649,70.0549451 L51.2162162,71.7032967 C51,71.8131868 50.9459459,72.0879121 51.0540541,72.3076923 L55.5405405,80 L59,78.2967033 Z" id="Shape" fill="#878787"></path>
                    <path d="M61.8820775,71.7049741 C61.8820775,71.7049741 65.5891999,66.3547917 67.3572121,62.5489918 C69.1252244,58.743192 70.3799427,56.095679 70.3799427,56.095679 C70.3799427,56.095679 70.4369754,55.5992703 72.2049876,56.8678703 C73.9729998,58.1364702 76.6535344,59.5153832 75.8550773,60.8942962 C75.0566202,62.2732092 71.1783998,68.8368351 67.4712774,71.7049741 C63.764155,74.5179566 60,77 60,77 C60,77 61.5969143,72.5874784 61.8820775,71.7049741 Z" id="Shape" fill="#ABABAB"></path>
                    <path d="M32.2413793,52 C33.8884381,51.2694524 39,51.3256484 39,51.3256484 L15.8275862,13 C15.8275862,13 12.6470588,15.2478386 11,17.3832853 L32.2413793,52 Z" id="Shape" fill="url(#linearGradient-1)"></path>
                    <path d="M24.3306613,8 L47,48.0765682 C47,48.0765682 43.8016032,52.5295202 42.5671343,50.4439604 C41.3326653,48.3584006 19,10.8183241 19,10.8183241 C19,10.8183241 21.1322645,9.63462796 22.4789579,8.95823018 C23.8817635,8.28183241 24.3306613,8 24.3306613,8 Z" id="Shape" fill="url(#linearGradient-2)"></path>
                    <path d="M45.0143641,59.7241053 C44.0602216,60.2926676 42.7693229,59.9515302 42.2080626,58.9849742 L10.2723514,4.11870654 C9.71109112,3.15215053 10.0478473,1.8444571 11.0019898,1.27589475 C11.9561323,0.707332387 13.247031,1.0484698 13.8082913,2.01502581 L45.6878764,56.8812935 C46.3052628,57.8478495 45.9685066,59.1555429 45.0143641,59.7241053 Z" id="Shape" fill="#30E6B6"></path>
                    <path d="M40.0281889,83 C17.9844961,83 0,65.028169 0,43 C0,30.8309859 5.46863989,19.4507042 14.9964764,11.7887324 C15.2219873,11.6197183 15.6166314,11.6197183 15.7857646,11.9014085 C15.9548978,12.1267606 15.9548978,12.5211268 15.6730092,12.6901408 C6.42706131,20.0704225 1.12755462,31.1690141 1.12755462,43 C1.12755462,64.4084507 18.6046512,81.8732394 40.0281889,81.8732394 C61.4517266,81.8732394 78.9288231,64.4084507 78.9288231,43 C78.9288231,21.5915493 61.4517266,4.12676056 40.0281889,4.12676056 C32.6427061,4.12676056 25.4827343,6.21126761 19.2811839,10.0985915 C18.9992953,10.2676056 18.6610289,10.2112676 18.4918957,9.92957746 C18.3227625,9.64788732 18.3791402,9.30985915 18.6610289,9.14084507 C25.0317125,5.14084507 32.4171952,3 39.9718111,3 C62.0155039,3 80,20.971831 80,43 C80,65.028169 62.1282593,83 40.0281889,83 Z" id="Shape" fill="#4D5052"></path>
                    <path d="M44.3509945,60 C44.1273473,60 43.9037001,60 43.6800529,59.886619 C43.0091113,59.7165475 42.4499934,59.2630234 42.0586108,58.6961184 L10.3566218,3.989781 C10.0211511,3.36618544 9.90932747,2.68589938 10.0770629,2.00561332 C10.2447983,1.32532726 10.6920926,0.758422212 11.3071224,0.361588676 C11.9221522,0.0214456457 12.5930937,-0.0919353644 13.2640353,0.0781361508 C13.9349769,0.248207666 14.4940948,0.701731706 14.8854774,1.26863676 L46.6433782,55.9749741 C46.9788489,56.5985697 47.0906725,57.2788558 46.9229371,57.9591418 C46.7552017,58.6394279 46.3079074,59.2063329 45.7487894,59.6031665 C45.301495,59.886619 44.8542006,60 44.3509945,60 Z M12.5930937,1.15525575 C12.3135347,1.15525575 12.0898876,1.21194625 11.8662404,1.38201777 C11.5307696,1.60877979 11.2512106,1.89223231 11.1952988,2.28906585 C11.0834752,2.68589938 11.139387,3.08273292 11.3630342,3.42287595 L43.1209349,58.1292133 C43.3445821,58.4693564 43.6241411,58.6961184 44.0155237,58.8094994 C44.4069063,58.9228804 44.7982888,58.8661899 45.1337596,58.6394279 C45.1337596,58.6394279 45.1337596,58.6394279 45.1337596,58.6394279 C45.4692304,58.4126659 45.6928776,58.1292133 45.8047012,57.7323798 C45.9165248,57.3355463 45.860613,56.9387127 45.6369658,56.5985697 L13.8790651,1.89223231 C13.5995061,1.43870827 13.0962999,1.15525575 12.5930937,1.15525575 Z" id="Shape" fill="#4D5052"></path>
                    <path d="M41.606914,65 C41.4320031,65 41.1987886,64.8918163 41.0821813,64.7295408 C40.9072704,64.4590816 41.0238777,64.1345306 41.3153958,63.9722551 L52.1015678,58.0762446 C52.393086,57.9139691 52.7429078,58.0221528 52.9178187,58.292612 C53.0927296,58.5630712 52.9761223,58.8876222 52.6846042,59.0498977 L41.8984322,64.9459082 C41.8401285,65 41.7235213,65 41.606914,65 Z" id="Shape" fill="#4D5052"></path>
                    <path d="M51.5859968,73 C51.4171142,73 51.1919374,72.9006779 51.0793489,72.7516948 C50.9104663,72.5033897 51.0230547,72.2054235 51.3045258,72.0564404 L55.1325321,70.0699992 C55.4140032,69.9210161 55.7517684,70.0203382 55.9206511,70.2686433 C56.0895337,70.5169485 55.9769453,70.8149147 55.6954742,70.9638978 L51.8674679,72.950339 C51.7548795,73 51.642291,73 51.5859968,73 Z" id="Shape" fill="#4D5052"></path>
                    <path d="M52.5859968,75 C52.4171142,75 52.1919374,74.9006779 52.0793489,74.7516948 C51.9104663,74.5033897 52.0230547,74.2054235 52.3045258,74.0564404 L56.1325321,72.0699992 C56.4140032,71.9210161 56.7517684,72.0203382 56.9206511,72.2686433 C57.0895337,72.5169485 56.9769453,72.8149147 56.6954742,72.9638978 L52.8674679,74.950339 C52.8111737,74.950339 52.6985853,75 52.5859968,75 Z" id="Shape" fill="#4D5052"></path>
                    <path d="M53.5859968,77 C53.4171142,77 53.1919374,76.9006779 53.0793489,76.7516948 C52.9104663,76.5033897 53.0230547,76.2054235 53.3045258,76.0564404 L57.1325321,74.0699992 C57.4140032,73.9210161 57.7517684,74.0203382 57.9206511,74.2686433 C58.0895337,74.5169485 57.9769453,74.8149147 57.6954742,74.9638978 L53.8674679,76.950339 C53.7548795,77 53.642291,77 53.5859968,77 Z" id="Shape" fill="#4D5052"></path>
                    <path d="M54.5859968,79 C54.4171142,79 54.1919374,78.9006779 54.0793489,78.7516948 C53.9104663,78.5033897 54.0230547,78.2054235 54.3045258,78.0564404 L58.1325321,76.0699992 C58.4140032,75.9210161 58.7517684,76.0203382 58.9206511,76.2686433 C59.0895337,76.5169485 58.9769453,76.8149147 58.6954742,76.9638978 L54.8674679,78.950339 C54.8111737,78.950339 54.6985853,79 54.5859968,79 Z" id="Shape" fill="#4D5052"></path>
                    <path d="M49.9755937,69 C49.6809669,69 49.3863401,68.9439507 49.0327879,68.8879013 C48.0899822,68.6637039 47.3239525,68.1032105 46.7936242,67.3185196 L44.0830577,63.00272 C43.9062816,62.7224732 44.0241323,62.3861772 44.3187591,62.2180291 L49.9755937,59.0792657 C50.0934444,59.0232164 50.2702205,58.9671671 50.4469966,59.0232164 C50.6237727,59.0792657 50.7416234,59.1353151 50.8005487,59.3034631 L53.5111153,63.6192628 C54.5128465,65.2446938 53.9235929,67.374569 52.2147574,68.3274078 L51.8022799,68.5516052 C51.2130263,68.831852 50.6237727,69 49.9755937,69 Z M45.4383409,62.8906213 L47.8542807,66.7580262 C48.561385,67.8790131 50.0345191,68.2153092 51.2130263,67.5987663 L51.6255038,67.374569 C52.804011,66.7019768 53.1575632,65.3007432 52.5093842,64.1797562 L50.0934444,60.3123514 L45.4383409,62.8906213 Z" id="Shape" fill="#4D5052"></path>
                    <polygon id="Rectangle-path" fill="#4D5052" transform="translate(52.000000, 69.500000) rotate(-30.498954) translate(-52.000000, -69.500000) " points="51 68 53 68 53 71 51 71"></polygon>
                    <circle id="Oval" fill="#4D5052" transform="translate(48.000000, 64.000000) rotate(-30.498954) translate(-48.000000, -64.000000) " cx="48" cy="64" r="1"></circle>
                    <circle id="Oval" fill="#4D5052" transform="translate(49.000000, 66.000000) rotate(-30.498954) translate(-49.000000, -66.000000) " cx="49" cy="66" r="1"></circle>
                    <path d="M26.3566434,16 C26.3006993,16 26.2447552,16 26.1888112,16 C26.020979,15.9427754 25.965035,15.7711016 26.020979,15.6566524 L27.4755245,11.193133 C27.5314685,11.0214592 27.6993007,10.9642346 27.8111888,11.0214592 C27.979021,11.0786838 28.034965,11.2503577 27.979021,11.3648069 L26.5244755,15.7711016 C26.5244755,15.8855508 26.4685315,15.9427754 26.3566434,16 Z" id="Shape" fill="#30E6B6"></path>
                    <path d="M35.2475098,29 C35.1398518,29 35.0860228,28.9415194 35.0321938,28.8830387 C34.9783648,28.7660775 34.9783648,28.5906356 35.1398518,28.4736743 L43.5910032,23.0349759 C43.6986612,22.9764952 43.8601482,22.9764952 43.9678062,23.1519371 C44.0216352,23.2688984 44.0216352,23.4443403 43.8601482,23.5613015 L35.4089968,29 C35.3013388,29 35.2475098,29 35.2475098,29 Z" id="Shape" fill="#30E6B6"></path>
                    <path d="M32.2472527,22 C32.1923077,22 32.1373626,22 32.0824176,21.9408867 C31.9725275,21.8226601 31.9725275,21.6453202 32.0824176,21.5270936 L36.532967,16.08867 C36.6428571,15.9704433 36.8076923,15.9704433 36.9175824,16.08867 C37.0274725,16.2068966 37.0274725,16.3842365 36.9175824,16.5024631 L32.467033,21.9408867 C32.3571429,22 32.3021978,22 32.2472527,22 Z" id="Shape" fill="#30E6B6"></path>
                    <path d="M38.2960035,36 C38.1835826,36 38.0711617,35.9337251 38.0149512,35.7349003 C37.9587408,35.5360755 38.0711617,35.4035256 38.1835826,35.3372507 L44.647786,33.0176282 C44.8164174,32.9513533 44.9288383,33.0839032 44.9850488,33.216453 C45.0412592,33.4152778 44.9288383,33.5478277 44.8164174,33.6141026 L38.352214,36 C38.352214,36 38.2960035,36 38.2960035,36 Z" id="Shape" fill="#30E6B6"></path>
                    <path d="M13.2197802,21.625 C13.1098901,21.5625 13,21.4375 13,21.3125 C13,21.125 13.1648352,21 13.2747253,21 L17.7252747,21.375 C17.8901099,21.375 18,21.5625 18,21.6875 C18,21.875 17.8351648,22 17.7252747,22 L13.2197802,21.625 C13.2197802,21.625 13.2197802,21.625 13.2197802,21.625 Z" id="Shape" fill="#30E6B6"></path>
                    <path d="M15.2468566,41 C15.1394827,41 15.0857958,40.9415194 15.0321089,40.8830387 C14.9784219,40.7660775 14.9784219,40.5906356 15.1394827,40.4736743 L23.5683293,35.0349759 C23.6757032,34.9764952 23.8367639,34.9764952 23.9441378,35.1519371 C24.0515116,35.327379 23.9978247,35.4443403 23.8367639,35.5613015 L15.4079173,41 C15.3005435,41 15.2468566,41 15.2468566,41 Z" id="Shape" fill="#30E6B6"></path>
                    <path d="M13.3107144,32 C13.1927063,32 13.0746983,31.9447168 13.0156943,31.8341503 C12.9566902,31.6683005 13.0746983,31.557734 13.1927063,31.5024508 L21.6302816,29.0147046 C21.8072937,28.9594213 21.9253017,29.0699878 21.9843057,29.1805543 C22.0433098,29.3464041 21.9253017,29.4569706 21.8072937,29.5122538 L13.3697184,32 C13.3697184,32 13.3107144,32 13.3107144,32 Z" id="Shape" fill="#30E6B6"></path>
                    <path d="M22.3100241,47 C22.2525471,47 22.137593,46.9430707 22.0801159,46.8861414 C21.9651618,46.7722828 21.9651618,46.6014949 22.137593,46.4876363 L28.5175448,41.0793524 C28.6324989,40.9654938 28.80493,40.9654938 28.9198841,41.1362817 C29.0348382,41.2501404 29.0348382,41.4209283 28.862407,41.5347869 L22.4824552,46.9430707 C22.4249782,47 22.3675011,47 22.3100241,47 Z" id="Shape" fill="#30E6B6"></path>
                    <path d="M61.7572131,69 C61.7572131,69 61.7572131,69 61.7572131,69 C61.5258574,69 61.2945017,68.8308559 61.1788238,68.6053304 C61.1788238,68.548949 59.501495,63.2491004 58.4603943,60.9374643 C57.6506493,59.1332605 56.9565822,57.6673449 56.3781929,56.4269548 C54.5273473,52.480259 53.5440856,50.3377669 52.6186627,46.1091643 C51.0570117,38.7795863 52.5029849,32.0138221 56.3781929,28.4617959 C58.8652668,26.2065411 62.0464077,25.4735833 65.4589044,26.3756852 C68.8714011,27.2777871 71.4163138,29.5330419 72.804448,32.915924 C75.0023273,38.1030099 74.1347434,44.9251555 70.490891,51.1834875 C64.5913205,61.2757525 62.2777634,68.548949 62.2199245,68.6053304 C62.2199245,68.8308559 61.9885688,69 61.7572131,69 Z M62.6826359,27.108643 C60.6582735,27.108643 58.8074279,27.8416008 57.2457768,29.251135 C53.6597634,32.5212544 52.3294681,38.8923491 53.8332802,45.8272574 C54.7008641,49.9430974 55.6841258,52.029208 57.4771325,55.9195224 C58.0555218,57.2162939 58.7495889,58.6822095 59.5593339,60.4864133 C60.253401,62.0650916 61.2366628,64.8841601 61.815052,66.6883639 C62.8561527,63.9820582 65.2853876,58.0620145 69.6233071,50.6760552 C73.0358038,44.8123928 73.9033877,38.2157727 71.8790252,33.4233563 C70.6065688,30.3787624 68.2930118,28.3490331 65.2853876,27.559694 C64.3599648,27.2214057 63.4923809,27.108643 62.6826359,27.108643 Z" id="Shape" fill="#4D5052"></path>
                    <path d="M64.2273653,27.3650575 C55.9629072,25.0488667 50.0834941,34.0311677 52.5794714,46.4595087 C53.6887946,51.9957698 55.0754487,54.0294983 58.1260875,61.2040406 C59.1244784,63.5767239 60.7329971,69 60.7329971,69 C60.7329971,69 62.9516436,61.7124728 68.7201244,51.4308452 C74.4886052,41.1492176 72.4363572,29.6812483 64.2273653,27.3650575 Z M57.0722305,40.9797402 C54.853584,40.0193684 55.0199825,38.5505644 55.0199825,38.5505644 C55.0199825,38.5505644 56.2957042,38.2116097 57.9596891,39.1719815 C59.6236739,40.1323533 60.1783355,41.3186949 60.1783355,41.3186949 C60.1783355,41.3186949 58.5698168,41.6576497 57.0722305,40.9797402 Z M68.3318612,42.9569763 C66.7233426,43.1829461 65.2257562,42.3920517 65.2257562,42.3920517 C65.2257562,42.3920517 66.0577486,41.3751874 67.9435981,40.9797402 C69.8294476,40.584293 70.9387708,41.20571 70.9387708,41.20571 C70.9387708,41.20571 70.7169062,42.674514 68.3318612,42.9569763 Z" id="Shape" fill="#4D5052"></path>
                    <path d="M67.3624863,65 C67.3053097,65 67.1909567,65 67.1337802,64.9436313 C66.8478975,64.8308938 66.7335444,64.4926814 66.8478975,64.2108377 C66.8478975,64.154469 69.0777822,58.9685454 73.3088454,50.4004977 C75.9961423,44.9327304 77.0824964,35.9137328 73.7662576,29.9950157 C71.8794322,26.6692603 68.9634291,24.7527233 64.961072,24.3017734 C59.8151843,23.7380861 55.7556507,25.4291481 52.8968242,29.3749596 C50.724116,32.3625025 50.1523507,35.6318891 50.1523507,35.6318891 C50.0951742,35.9137328 49.8092915,36.1392078 49.4662324,36.082839 C49.1803497,36.0264703 48.9516436,35.7446266 49.0088201,35.4064142 C49.0088201,35.2936767 51.696117,21.5960742 65.0754251,23.11803 C69.4208414,23.6253486 72.7370801,25.7673605 74.7954352,29.4313283 C78.2832035,35.7446266 77.254026,44.9890991 74.3380229,50.8514476 C70.1641362,59.3631265 67.9342516,64.5490501 67.9342516,64.6054189 C67.8198985,64.8872625 67.5911924,65 67.3624863,65 Z" id="Shape" fill="#4D5052"></path>
                    <path d="M53.4181498,57 C53.2548234,57 53.091497,56.8852515 52.9826127,56.7705031 C49.8249694,51.7789453 49.0627796,45.9267741 49.0083375,45.639903 C48.9538953,45.3530319 49.1716639,45.0661607 49.4983166,45.0087865 C49.8249694,44.9514123 50.0427379,45.1809092 50.09718,45.5251545 C50.09718,45.5825288 50.8593698,51.3773257 53.9081289,56.1393866 C54.0714553,56.4262577 54.0170132,56.7705031 53.7448025,56.9426258 C53.6359183,56.9426258 53.527034,57 53.4181498,57 Z" id="Shape" fill="#4D5052"></path>
                    <path d="M76.4071357,61 C76.042909,61 75.4358645,60.5273097 70.2152821,56.0367516 C69.9724643,55.8004064 69.9117599,55.4458887 70.1545777,55.2095435 C70.3973955,54.9731983 70.7616221,54.914112 71.0044399,55.1504572 C72.9469822,56.8048733 76.1643179,59.5228427 76.6499535,59.8773605 C76.9534757,59.9955331 77.0748846,60.3500508 76.9534757,60.6454823 C76.8927713,60.8227411 76.7106579,60.9409137 76.5285446,61 C76.5285446,61 76.4678401,61 76.4071357,61 Z" id="Shape" fill="#4D5052"></path>
                    <path d="M76,44 C75.9425287,44.1163636 74.045977,52.6109091 75.5977011,60 L71,55.9854545 C72.7816092,52.1454545 76,44 76,44 Z" id="Shape" fill="#4D5052"></path>
                    <path d="M43.5855606,51 C43.3453306,51 43.1051006,50.8875682 43.0450431,50.6627047 C42.9249281,50.3816252 43.0450431,50.0443299 43.4053881,49.9318981 C43.4654456,49.9318981 44.4263656,49.5383869 45.6275156,49.2010916 C47.489298,48.6951486 47.7895855,47.458399 47.7895855,47.458399 C47.849643,47.1773196 48.1499305,46.952456 48.5102755,47.0086719 C48.810563,47.0648878 49.050793,47.3459673 48.9907355,47.6832626 C48.9907355,47.7394785 48.6303905,49.5946028 45.9878605,50.3254093 C44.8467681,50.6627047 43.8858481,51 43.8858481,51 C43.7657331,51 43.6456181,51 43.5855606,51 Z" id="Shape" fill="#4D5052"></path>
                    <path d="M16.0024213,74 L15,73.5545244 C15,73.5545244 16.6707022,69.4895592 17.7845036,66.8723898 L17.8401937,66.7610209 C19.0096852,63.9767981 21.1815981,58.7981439 25.748184,54.1763341 C28.0871671,51.7819026 30.6489104,50.5011601 33.8232446,50.2227378 C36.3292978,50 37.3874092,50 37.4430993,50 C37.7772397,50 38,50.2784223 38,50.5568445 C38,50.8909513 37.7772397,51.1136891 37.4430993,51.1136891 C37.4430993,51.1136891 37.4430993,51.1136891 37.4430993,51.1136891 C37.4430993,51.1136891 36.3849879,51.1136891 33.9346247,51.3364269 C31.0387409,51.6148492 28.6997579,52.7842227 26.527845,54.9559165 C22.1283293,59.4106729 20.0121065,64.4779582 18.8983051,67.2064965 L18.842615,67.3178654 C17.6731235,69.9350348 16.0024213,74 16.0024213,74 Z" id="Shape" fill="#4D5052"></path>
                    <path d="M31.5589141,82 C31.454322,82 31.3497299,81.9441624 31.2451378,81.8883249 C30.9836575,81.7208122 30.9313614,81.3857868 31.0882496,81.106599 C31.0882496,81.0507614 33.4938684,77.3096447 34.905862,70.2182741 C36.1086714,64.2436548 35.9517832,60.6142132 35.9517832,60.5583756 C35.9517832,60.2233503 36.1609675,60 36.4747438,60 C36.7362241,60 36.9977044,60.2233503 36.9977044,60.5583756 C36.9977044,60.7258883 37.1022965,64.3553299 35.8994872,70.4416244 C34.4351975,77.8121827 32.0295787,81.6091371 31.9249866,81.7208122 C31.8726905,81.8883249 31.7158023,82 31.5589141,82 Z" id="Shape" fill="#4D5052"></path>
                    <path d="M38.4452213,84 C38.3989716,84 38.3527218,84 38.3064721,83.9433962 C38.0752234,83.8301887 37.9364742,83.490566 38.0289737,83.2075472 C38.0289737,83.1509434 39.2314667,79.0188679 39.0464678,72.5660377 C39.0464678,72.2264151 39.2314667,72 39.5089651,72 C39.7402138,72 39.9714625,72.2264151 39.9714625,72.5660377 C40.2027111,79.245283 38.9539684,83.4339623 38.9077186,83.6603774 C38.8152192,83.8301887 38.6302202,84 38.4452213,84 Z" id="Shape" fill="#4D5052"></path>
                    <path d="M49.4378871,82 C49.3788786,82 49.3198701,82 49.3198701,82 C44.717205,80.9743983 44.0091027,76.7640334 44.0091027,76.6020963 C43.9500942,76.3322011 44.1861283,76.0083269 44.4811709,76.0083269 C44.7762136,75.9543478 45.1302647,76.170264 45.1302647,76.4401592 C45.1302647,76.6020963 45.7793585,80.1107337 49.5559042,80.9743983 C49.8509468,81.0283773 50.0869809,81.3522516 49.9689638,81.6221467 C49.9689638,81.8380629 49.7329297,82 49.4378871,82 Z" id="Shape" fill="#4D5052"></path>
                    <path d="M61.538602,74 C60.0592367,74 58.8643648,71.9371271 57.0436075,67.8113814 C56.9298102,67.5166852 57.0436075,67.1630499 57.3281008,67.0451714 C57.6125942,66.927293 57.9539861,67.0451714 58.0677835,67.3398676 C58.8074661,68.9901659 60.514426,72.8212155 61.538602,72.8212155 C62.1075886,72.8212155 63.7007512,70.6404642 64.9525218,68.1650167 C65.1232178,67.8703206 65.4646098,67.7524421 65.6922044,67.9292598 C65.9766977,68.1060775 66.0904951,68.4597128 65.9197991,68.6954697 C65.3508124,69.9921327 63.1886632,74 61.538602,74 Z" id="Shape" fill="#4D5052"></path>
                    <path d="M73.4144053,67 C73.1531467,67 72.9572027,66.8895173 72.8265733,66.7237933 L71.0630773,63.7960023 C70.932448,63.5197956 70.9977627,63.1883476 71.324336,63.0778649 C71.6509093,62.9121409 72.0427973,63.0226235 72.1734267,63.2988302 L73.9369227,66.2266212 C74.067552,66.5028279 74.0022373,66.834276 73.675664,66.9447587 C73.6103493,66.9447587 73.47972,67 73.4144053,67 Z" id="Shape" fill="#4D5052"></path>
                    <path d="M48.5844127,31 C48.4727576,31 48.3611025,30.9433758 48.2494475,30.8867515 C47.9703098,30.7168788 47.9144822,30.3771334 48.1377924,30.0940123 C48.1936199,30.037388 53.7763742,22.1666197 63.4903666,23.0726074 C63.7695043,23.0726074 64.048642,23.3557286 63.9928145,23.695474 C63.9928145,23.9785951 63.7136768,24.2617163 63.3787115,24.2050921 C54.3346496,23.4123528 49.0868606,30.7168788 49.0310331,30.7735031 C48.919378,30.8867515 48.7518953,31 48.5844127,31 Z" id="Shape" fill="#4D5052"></path>
                    <path d="M41.5412636,48 C41.5412636,48 41.4821366,48 41.4821366,48 C41.1865019,47.9453849 40.949994,47.6723095 41.009121,47.399234 C41.009121,47.2900038 41.4821366,44.6138645 42.4281679,42.1015704 C43.2559453,39.9715819 44.7932461,37.4046727 44.852373,37.2954425 C45.0297539,37.0223671 45.3845156,36.9131369 45.6801504,37.0769822 C45.9757851,37.2408274 46.0940391,37.568518 45.9166582,37.8415934 C45.9166582,37.8415934 44.3793574,40.4631177 43.610707,42.483876 C42.6646757,44.941555 42.250787,47.5630793 42.1916601,47.6176944 C42.0734062,47.8361547 41.8368984,48 41.5412636,48 Z" id="Shape" fill="#4D5052"></path>
                    <path d="M30.4188507,50 C30.3533265,50 30.2222781,50 30.1567539,50 C30.0257055,49.946231 29.9601813,49.784924 30.0257055,49.623617 L32.3845767,46.1286318 C32.4501009,46.0210938 32.6466735,45.9673248 32.8432461,46.0210938 C32.9742945,46.0748628 33.0398187,46.2361698 32.9742945,46.3974769 L30.6154233,49.892462 C30.5498991,49.946231 30.4843749,49.946231 30.4188507,50 Z" id="Shape" fill="#30E6B6"></path>
                    <path d="M44.7101449,43 C44.7101449,43 44.7101449,43 44.7101449,43 L41.2898551,42.9090909 C41.115942,42.9090909 41,42.7272727 41,42.4545455 C41,42.1818182 41.115942,42 41.2898551,42 C41.2898551,42 41.2898551,42 41.2898551,42 L44.7101449,42.0909091 C44.884058,42.0909091 45,42.2727273 45,42.5454545 C45,42.8181818 44.826087,43 44.7101449,43 Z" id="Shape" fill="#30E6B6"></path>
                    <path d="M26,58.0548578 C28.3653846,55.7398866 29.75,54.0312173 32.2307692,53.4249153 C34.7115385,52.8186133 37.6538462,53.0390867 37.6538462,53.0390867 L41,58.0548578 C41,58.0548578 38.5769231,56.8973722 35.8076923,57.6690293 C33.0384615,58.4406864 32.4038462,58.8265149 29.9807692,58.99187 C27.6153846,59.1021068 26,58.0548578 26,58.0548578 Z" id="Shape" fill="#FFFFFF"></path>
                    <path d="M62.8322215,41.0098136 C63.2364888,41.0098136 63.640756,42.2720841 63.7418229,43.4742466 C63.7923563,44.1955441 63.8934231,45.2774903 63.9944899,45.9386796 C64.0450233,46.4195446 63.7418229,46.9004096 63.3375556,46.9605177 C63.135422,47.0206258 62.8322215,47.0206258 62.529021,46.9004096 C61.5183528,46.6599771 61.0130188,46.4796527 60.6087515,46.6599771 C59.9012837,46.9004096 59.6991501,45.2774903 60.6087515,45.0370578 C61.8215533,44.7365172 61.5183528,42.211976 61.8215533,41.4906786 C62.0742204,40.8895973 62.4784876,41.0098136 62.8322215,41.0098136 Z" id="Shape" fill="#757575"></path>
                    <path d="M57.9908987,40.5633387 C55.8415407,39.573573 56.0027426,38.0598138 56.0027426,38.0598138 C56.0027426,38.0598138 57.2386234,37.7104847 58.850642,38.7002504 C60.4626605,39.690016 61,40.9126677 61,40.9126677 C61,40.9126677 59.4417154,41.2619968 57.9908987,40.5633387 Z" id="Shape" fill="#30E6B6"></path>
                    <path d="M69.2621359,42.9622201 C67.5728155,43.1724736 66,42.4365863 66,42.4365863 C66,42.4365863 66.8737864,41.4904456 68.8543689,41.122502 C70.8349515,40.7545584 72,41.3327555 72,41.3327555 C72,41.3327555 71.7669903,42.6994032 69.2621359,42.9622201 Z" id="Shape" fill="#30E6B6"></path>
                    <path d="M59.5033501,52.3222275 C60.3108515,51.7472524 60.5261852,52.066683 61.2798532,52.3222275 C62.0335212,52.577772 62.0335212,53.7277221 61.9796878,54.4943556 C61.9258544,55.260989 61.0106861,55.0693306 59.8801841,54.4943556 C58.7496821,53.9193805 58.8035156,52.8333165 59.5033501,52.3222275 Z" id="Shape" fill="#757575"></path>
                    <path d="M56,36.9761417 C56,36.9761417 59.4444444,37.3947325 60.7777778,37.8731219 C62.1111111,38.3515113 62.6666667,37.3947325 62.7777778,36.3781549 C62.8888889,35.3615773 63,33.8666103 63,32.9696301 C63,32.0726499 61.8888889,31.5344618 60.5,32.5510394 C59.1111111,33.5676169 57.3888889,34.8233892 56,36.9761417 Z" id="Shape" fill="#757575"></path>
                </g>
            </g>
        </g>
    </g>
</svg>