<svg id="Capa_1" data-name="Capa 1" xmlns="http://www.w3.org/2000/svg" viewBox="0 0 500 266.67">
    <title>005-embed</title>
    <path d="M133.33,0L0,133.33,133.33,266.67H200L66.67,133.33,200,0H133.33ZM366.67,0H300L433.33,133.33,300,266.67h66.67L500,133.33Z"/>
</svg>