<svg id="Layer_1" data-name="Layer 1" xmlns="http://www.w3.org/2000/svg" viewBox="0 0 46 72">
    <title>wearbuds-clock</title>
    <path class="cls-1"
          d="M37.58,17.84l-1-11.78a0.06,0.06,0,0,1,0,0A6.72,6.72,0,0,0,29.84,0H11.3A6.72,6.72,0,0,0,4.57,6.08h0l-1,11.77A8.55,8.55,0,0,0,0,24.79V47.08a8.56,8.56,0,0,0,3.57,7l1,11.78s0,0,0,.05A6.77,6.77,0,0,0,11.3,72H29.84a6.77,6.77,0,0,0,6.74-6.14v0l1-11.78a8.58,8.58,0,0,0,3.57-7V24.79A8.56,8.56,0,0,0,37.58,17.84ZM9,7.4a3.3,3.3,0,0,1,3.32-3H28.84a3.3,3.3,0,0,1,3.32,3l0.85,9a8.58,8.58,0,0,0-1.44-.11h-22a8.58,8.58,0,0,0-1.44.11ZM32.16,64.53a3.36,3.36,0,0,1-3.32,3H12.3a3.36,3.36,0,0,1-3.32-3l-0.85-9a8.6,8.6,0,0,0,1.44.14h22A8.59,8.59,0,0,0,33,55.58Zm4.55-18.39a5.14,5.14,0,0,1-5.14,5.14h-22a5.14,5.14,0,0,1-5.14-5.14V25.86a5.14,5.14,0,0,1,5.14-5.14h22a5.14,5.14,0,0,1,5.14,5.14V46.14Z"/>
    <path class="cls-1"
          d="M43.54,31.82a1.71,1.71,0,0,0-1.71,1.71v4.8a1.71,1.71,0,1,0,3.43,0v-4.8A1.71,1.71,0,0,0,43.54,31.82Z"/>
    <path class="cls-1" d="M17,41.48v-12a1,1,0,0,1,1.73-.69l5.63,6a1,1,0,0,1,0,1.37l-5.63,6A1,1,0,0,1,17,41.48Z"/>
</svg>
